\relax 
\providecommand\babel@aux[2]{}
\@nameuse{bbl@beforestart}
\catcode `"\active 
\babel@aux{portuguese}{}
\@writefile{toc}{\contentsline {section}{\numberline {1}Introdução}{1}\protected@file@percent }
\@writefile{toc}{\contentsline {section}{\numberline {2}Modos de Interação}{1}\protected@file@percent }
\@writefile{toc}{\contentsline {subsection}{\numberline {2.1}Cliente}{1}\protected@file@percent }
\@writefile{toc}{\contentsline {subsection}{\numberline {2.2}Estabelecimento}{1}\protected@file@percent }
\@writefile{toc}{\contentsline {section}{\numberline {3}Base de Dados}{3}\protected@file@percent }
\@writefile{toc}{\contentsline {subsection}{\numberline {3.1}Tabela \textit  {Users}}{3}\protected@file@percent }
\@writefile{lot}{\contentsline {table}{\numberline {1}{\ignorespaces Base de Dados - Tabela \textit  {Users}}}{3}\protected@file@percent }
\newlabel{Tab:user}{{1}{3}}
\@writefile{toc}{\contentsline {subsection}{\numberline {3.2}Tabela \textit  {Establishments}}{4}\protected@file@percent }
\@writefile{lot}{\contentsline {table}{\numberline {2}{\ignorespaces Base de Dados - Tabela \textit  {Establishments}}}{4}\protected@file@percent }
\newlabel{Tab:Establishment}{{2}{4}}
\@writefile{toc}{\contentsline {subsection}{\numberline {3.3}Tabela \textit  {Services}}{5}\protected@file@percent }
\@writefile{lot}{\contentsline {table}{\numberline {3}{\ignorespaces Base de Dados - Tabela \textit  {Services}}}{5}\protected@file@percent }
\newlabel{Tab:Services}{{3}{5}}
\@writefile{toc}{\contentsline {subsection}{\numberline {3.4}Tabela \textit  {EstablishmentCategories}}{5}\protected@file@percent }
\@writefile{lot}{\contentsline {table}{\numberline {4}{\ignorespaces Base de Dados - Tabela \textit  {EstablishmentCategories}}}{5}\protected@file@percent }
\newlabel{Tab:EstCat}{{4}{5}}
\@writefile{toc}{\contentsline {subsection}{\numberline {3.5}Tabela \textit  {EstablishmentServices}}{5}\protected@file@percent }
\@writefile{lot}{\contentsline {table}{\numberline {5}{\ignorespaces Base de Dados - Tabela \textit  {EstablishmentServices}}}{5}\protected@file@percent }
\newlabel{Tab:EstServices}{{5}{5}}
\@writefile{toc}{\contentsline {subsection}{\numberline {3.6}Tabela \textit  {Employees}}{6}\protected@file@percent }
\@writefile{lot}{\contentsline {table}{\numberline {6}{\ignorespaces Base de Dados - Tabela \textit  {Employees}}}{6}\protected@file@percent }
\newlabel{Tab:Employee}{{6}{6}}
\@writefile{toc}{\contentsline {subsection}{\numberline {3.7}Tabela \textit  {EmployeeServices}}{6}\protected@file@percent }
\@writefile{lot}{\contentsline {table}{\numberline {7}{\ignorespaces Base de Dados - Tabela \textit  {EmployeeServices}}}{6}\protected@file@percent }
\newlabel{Tab:EmployeeService}{{7}{6}}
\@writefile{toc}{\contentsline {subsection}{\numberline {3.8}Tabela \textit  {Schedules}}{7}\protected@file@percent }
\@writefile{lot}{\contentsline {table}{\numberline {8}{\ignorespaces Base de Dados - Tabela \textit  {Schedules}}}{7}\protected@file@percent }
\newlabel{Tab:Schedules}{{8}{7}}
\@writefile{toc}{\contentsline {subsection}{\numberline {3.9}Tabela \textit  {Photos}}{7}\protected@file@percent }
\@writefile{lot}{\contentsline {table}{\numberline {9}{\ignorespaces Base de Dados - Tabela \textit  {Photos}}}{7}\protected@file@percent }
\newlabel{Tab:Photos}{{9}{7}}
\@writefile{toc}{\contentsline {subsection}{\numberline {3.10}Tabela \textit  {SchedulePhotos}}{8}\protected@file@percent }
\@writefile{lot}{\contentsline {table}{\numberline {10}{\ignorespaces Base de Dados - Tabela \textit  {SchedulePhotos}}}{8}\protected@file@percent }
\newlabel{Tab:SchedulePhotos}{{10}{8}}
\@writefile{toc}{\contentsline {subsection}{\numberline {3.11}Tabela \textit  {CustomerReviews}}{8}\protected@file@percent }
\@writefile{lot}{\contentsline {table}{\numberline {11}{\ignorespaces Base de Dados - Tabela \textit  {CustomerReviews}}}{8}\protected@file@percent }
\newlabel{Tab:CustomerReviews}{{11}{8}}
\@writefile{toc}{\contentsline {subsection}{\numberline {3.12}Tabela \textit  {CustomerServices}}{9}\protected@file@percent }
\@writefile{lot}{\contentsline {table}{\numberline {12}{\ignorespaces Base de Dados - Tabela \textit  {CustomerServices}}}{9}\protected@file@percent }
\newlabel{Tab:CustomerServices}{{12}{9}}
\@writefile{toc}{\contentsline {subsection}{\numberline {3.13}Tabela \textit  {CustomerEmployees}}{9}\protected@file@percent }
\@writefile{lot}{\contentsline {table}{\numberline {13}{\ignorespaces Base de Dados - Tabela \textit  {CustomerEmployees}}}{9}\protected@file@percent }
\newlabel{Tab:CustomerEmployees}{{13}{9}}
\@writefile{toc}{\contentsline {subsection}{\numberline {3.14}Tabela \textit  {EstablishmentConfig}}{10}\protected@file@percent }
\@writefile{lot}{\contentsline {table}{\numberline {14}{\ignorespaces Base de Dados - Tabela \textit  {CustomerEmployees}}}{10}\protected@file@percent }
\newlabel{Tab:EstConfig}{{14}{10}}
\@writefile{toc}{\contentsline {subsection}{\numberline {3.15}Tabela \textit  {EmployeePermissions}}{10}\protected@file@percent }
\@writefile{lot}{\contentsline {table}{\numberline {15}{\ignorespaces Base de Dados - Tabela \textit  {CustomerEmployees}}}{10}\protected@file@percent }
\newlabel{Tab:EmployeePermissions}{{15}{10}}
\@writefile{toc}{\contentsline {section}{\numberline {4}Implementação do \textit  {Backend}}{11}\protected@file@percent }
\@writefile{toc}{\contentsline {section}{\numberline {5}Funcionalidades Futuras}{12}\protected@file@percent }
